<?xml version="1.0" encoding="UTF-8" standalone="no"?>
<!-- Created with Inkscape (http://www.inkscape.org/) -->

<svg
   xmlns:dc="http://purl.org/dc/elements/1.1/"
   xmlns:cc="http://creativecommons.org/ns#"
   xmlns:rdf="http://www.w3.org/1999/02/22-rdf-syntax-ns#"
   xmlns:svg="http://www.w3.org/2000/svg"
   xmlns="http://www.w3.org/2000/svg"
   xmlns:sodipodi="http://sodipodi.sourceforge.net/DTD/sodipodi-0.dtd"
   xmlns:inkscape="http://www.inkscape.org/namespaces/inkscape"
   width="200mm"
   height="140mm"
   viewBox="0 0 200 140"
   version="1.1"
   id="svg8"
   inkscape:version="0.92.5 (2060ec1f9f, 2020-04-08)"
   sodipodi:docname="floorplan.svg">
  <defs
     id="defs2">
    <inkscape:perspective
       sodipodi:type="inkscape:persp3d"
       inkscape:vp_x="0 : 148.49999 : 1"
       inkscape:vp_y="0 : 999.99998 : 0"
       inkscape:vp_z="210 : 148.49999 : 1"
       inkscape:persp3d-origin="105.00001 : 98.999998 : 1"
       id="perspective815" />
  </defs>
  <sodipodi:namedview
     id="base"
     pagecolor="#ffffff"
     bordercolor="#666666"
     borderopacity="1.0"
     inkscape:pageopacity="0.0"
     inkscape:pageshadow="2"
     inkscape:zoom="1.8101934"
     inkscape:cx="292.02133"
     inkscape:cy="262.74262"
     inkscape:document-units="mm"
     inkscape:current-layer="layer1"
     showgrid="true"
     inkscape:window-width="1918"
     inkscape:window-height="1038"
     inkscape:window-x="0"
     inkscape:window-y="20"
     inkscape:window-maximized="1"
     inkscape:measure-start="-86.9291,457.323"
     inkscape:measure-end="-34.0157,476.22"
     showguides="false">
    <inkscape:grid
       type="xygrid"
       id="grid4669"
       empspacing="1"
       spacingx="1"
       spacingy="1"
       dotted="false"
       units="mm" />
  </sodipodi:namedview>
  <metadata
     id="metadata5">
    <rdf:RDF>
      <cc:Work
         rdf:about="">
        <dc:format>image/svg+xml</dc:format>
        <dc:type
           rdf:resource="http://purl.org/dc/dcmitype/StillImage" />
        <dc:title />
      </cc:Work>
    </rdf:RDF>
  </metadata>
  <g
     inkscape:label="Layer 1"
     inkscape:groupmode="layer"
     id="layer1"
     transform="translate(0,-157)">
    <rect
       style="opacity:1;fill:none;fill-opacity:1;stroke:#133d87;stroke-width:1;stroke-miterlimit:4;stroke-dasharray:none;stroke-dashoffset:0;stroke-opacity:1"
       id="rect847"
       width="49"
       height="105.4"
       x="10.999996"
       y="172" />
    <path
       style="fill:none;stroke:#133d87;stroke-width:1;stroke-linecap:butt;stroke-linejoin:miter;stroke-miterlimit:4;stroke-dasharray:none;stroke-opacity:1"
       d="M 60.276184,237.53853 H 35.776183 v -24.62826 h -24.90174"
       id="path962"
       inkscape:connector-curvature="0" />
    <path
       style="fill:none;stroke:#133d87;stroke-width:1;stroke-linecap:butt;stroke-linejoin:miter;stroke-miterlimit:4;stroke-dasharray:none;stroke-opacity:1"
       d="m 35.776184,247.101 v 30.5"
       id="path989"
       inkscape:connector-curvature="0"
       sodipodi:nodetypes="cc" />
    <text
       xml:space="preserve"
       style="font-style:normal;font-weight:normal;font-size:3.52777767px;line-height:1.25;font-family:sans-serif;letter-spacing:0px;word-spacing:0px;fill:#d5ffd5;fill-opacity:1;stroke:none;stroke-width:0.26458332"
       x="37.856224"
       y="49.692162"
       id="text997"><tspan
         sodipodi:role="line"
         id="tspan995"
         x="37.856224"
         y="52.813419"
         style="fill:#d5ffd5;stroke-width:0.26458332" /></text>
    <text
       xml:space="preserve"
       style="font-style:normal;font-weight:normal;font-size:3.52777767px;line-height:1.25;font-family:sans-serif;letter-spacing:0px;word-spacing:0px;fill:#76b769;fill-opacity:1;stroke:none;stroke-width:0.26458332"
       x="40.54966"
       y="253.33794"
       id="text1001"><tspan
         sodipodi:role="line"
         x="40.54966"
         y="253.33794"
         style="font-size:5.29166651px;fill:#76b769;fill-opacity:1;stroke-width:0.26458332"
         id="tspan1003">__kitchen_T_</tspan><tspan
         sodipodi:role="line"
         x="40.54966"
         y="259.95251"
         style="font-size:5.29166651px;fill:#76b769;fill-opacity:1;stroke-width:0.26458332"
         id="tspan1030">__kitchen_H_</tspan><tspan
         sodipodi:role="line"
         x="40.54966"
         y="265.00647"
         style="fill:#76b769;fill-opacity:1;stroke-width:0.26458332"
         id="tspan1007">kitchen</tspan></text>
    <a
       id="a4543"
       transform="translate(-6.5351267,-4.3442181)">
      <text
         id="text1001-7"
         y="190.29431"
         x="34.447243"
         style="font-style:normal;font-weight:normal;font-size:3.52777767px;line-height:1.25;font-family:sans-serif;letter-spacing:0px;word-spacing:0px;fill:#000000;fill-opacity:1;stroke:none;stroke-width:0.26458332"
         xml:space="preserve"><tspan
           id="tspan1003-5"
           style="font-size:5.29166651px;fill:#d31a1a;fill-opacity:1;stroke-width:0.26458332"
           y="190.29431"
           x="34.447243"
           sodipodi:role="line">__living_room_T_</tspan><tspan
           id="tspan1032"
           style="font-size:5.29166651px;fill:#d31a1a;fill-opacity:1;stroke-width:0.26458332"
           y="196.90889"
           x="34.447243"
           sodipodi:role="line">__living_room_H_</tspan><tspan
           id="tspan1007-3"
           style="fill:#d31a1a;fill-opacity:1;stroke-width:0.26458332"
           y="201.96284"
           x="34.447243"
           sodipodi:role="line">living room</tspan></text>
    </a>
    <rect
       style="opacity:1;fill:none;fill-opacity:1;stroke:#133d87;stroke-width:1;stroke-miterlimit:4;stroke-dasharray:none;stroke-dashoffset:0;stroke-opacity:1"
       id="rect847-3"
       width="49"
       height="105.4"
       x="74"
       y="172" />
    <path
       style="fill:none;stroke:#133d87;stroke-width:1;stroke-linecap:butt;stroke-linejoin:miter;stroke-miterlimit:4;stroke-dasharray:none;stroke-opacity:1"
       d="m 73.93444,244.08586 h 26.0129"
       id="path989-6"
       inkscape:connector-curvature="0"
       sodipodi:nodetypes="cc" />
    <path
       style="fill:none;stroke:#133d87;stroke-width:1;stroke-linecap:butt;stroke-linejoin:miter;stroke-miterlimit:4;stroke-dasharray:none;stroke-opacity:1"
       d="m 109.0364,244.08585 h 13.7"
       id="path989-6-7"
       inkscape:connector-curvature="0"
       sodipodi:nodetypes="cc" />
    <path
       style="fill:none;stroke:#133d87;stroke-width:0.99999994;stroke-linecap:butt;stroke-linejoin:miter;stroke-miterlimit:4;stroke-dasharray:none;stroke-opacity:1"
       d="m 73.986328,211.87385 h 12"
       id="path989-6-5"
       inkscape:connector-curvature="0"
       sodipodi:nodetypes="cc" />
    <path
       style="fill:none;stroke:#133d87;stroke-width:1;stroke-linecap:butt;stroke-linejoin:miter;stroke-miterlimit:4;stroke-dasharray:none;stroke-opacity:1"
       d="m 98.98633,171.87385 v 40"
       id="path989-6-5-3"
       inkscape:connector-curvature="0"
       sodipodi:nodetypes="cc" />
    <path
       style="fill:none;stroke:#133d87;stroke-width:1;stroke-linecap:butt;stroke-linejoin:miter;stroke-miterlimit:4;stroke-dasharray:none;stroke-opacity:1"
       d="m 111.98633,211.87385 h 10.90718"
       id="path989-6-5-6"
       inkscape:connector-curvature="0"
       sodipodi:nodetypes="cc" />
    <path
       style="fill:none;stroke:#133d87;stroke-width:1;stroke-linecap:butt;stroke-linejoin:miter;stroke-miterlimit:4;stroke-dasharray:none;stroke-opacity:1"
       d="m 94.98633,211.87386 h 8"
       id="path989-6-5-6-2"
       inkscape:connector-curvature="0"
       sodipodi:nodetypes="cc" />
    <a
       transform="translate(-93.30703,57.275851)"
       id="a4543-3">
      <text
         id="text1001-7-6"
         y="200.45154"
         x="183.25575"
         style="font-style:normal;font-weight:normal;font-size:3.52777767px;line-height:1.25;font-family:sans-serif;letter-spacing:0px;word-spacing:0px;fill:#cb7124;fill-opacity:1;stroke:none;stroke-width:0.26458332"
         xml:space="preserve"><tspan
           id="tspan1003-5-7"
           style="font-size:5.29166651px;fill:#cb7124;fill-opacity:1;stroke-width:0.26458332"
           y="200.45154"
           x="183.25575"
           sodipodi:role="line">__lab_T_</tspan><tspan
           id="tspan1032-5"
           style="font-size:5.29166651px;fill:#cb7124;fill-opacity:1;stroke-width:0.26458332"
           y="207.06612"
           x="183.25575"
           sodipodi:role="line">__lab_H_</tspan><tspan
           id="tspan1007-3-3"
           style="fill:#cb7124;fill-opacity:1;stroke-width:0.26458332"
           y="212.12007"
           x="183.25575"
           sodipodi:role="line">lab</tspan></text>
      <text
         id="text1001-7-6-5"
         y="128.93135"
         x="171.86215"
         style="font-style:normal;font-weight:normal;font-size:3.52777767px;line-height:1.25;font-family:sans-serif;letter-spacing:0px;word-spacing:0px;fill:#a8a459;fill-opacity:1;stroke:none;stroke-width:0.26458332"
         xml:space="preserve"><tspan
           id="tspan1003-5-7-6"
           style="font-size:5.29166651px;fill:#a8a459;fill-opacity:1;stroke-width:0.26458332"
           y="128.93135"
           x="171.86215"
           sodipodi:role="line">__bedroom_T_</tspan><tspan
           id="tspan1032-5-2"
           style="font-size:5.29166651px;fill:#a8a459;fill-opacity:1;stroke-width:0.26458332"
           y="135.54593"
           x="171.86215"
           sodipodi:role="line">__bedroom_H_</tspan><tspan
           id="tspan1007-3-3-9"
           style="fill:#a8a459;fill-opacity:1;stroke-width:0.26458332"
           y="140.59988"
           x="171.86215"
           sodipodi:role="line">bedroom</tspan></text>
      <text
         id="text1001-7-6-1"
         y="168.99321"
         x="184.72574"
         style="font-style:normal;font-weight:normal;font-size:3.52777767px;line-height:1.25;font-family:sans-serif;letter-spacing:0px;word-spacing:0px;fill:#6e86f5;fill-opacity:1;stroke:none;stroke-width:0.26458332"
         xml:space="preserve"><tspan
           id="tspan1003-5-7-2"
           style="font-size:5.29166651px;fill:#6e86f5;fill-opacity:1;stroke-width:0.26458332"
           y="168.99321"
           x="184.72574"
           sodipodi:role="line">__bath_T_</tspan><tspan
           id="tspan1032-5-7"
           style="font-size:5.29166651px;fill:#6e86f5;fill-opacity:1;stroke-width:0.26458332"
           y="175.60779"
           x="184.72574"
           sodipodi:role="line">__bath_H_</tspan><tspan
           id="tspan1007-3-3-0"
           style="fill:#6e86f5;fill-opacity:1;stroke-width:0.26458332"
           y="180.66174"
           x="184.72574"
           sodipodi:role="line">bath</tspan></text>
      <text
         id="text1001-7-6-5-6"
         y="128.99954"
         x="196.48323"
         style="font-style:normal;font-weight:normal;font-size:3.52777767px;line-height:1.25;font-family:sans-serif;letter-spacing:0px;word-spacing:0px;fill:#9b637a;fill-opacity:1;stroke:none;stroke-width:0.26458332"
         xml:space="preserve"><tspan
           id="tspan1003-5-7-6-1"
           style="font-size:5.29166651px;fill:#9b637a;fill-opacity:1;stroke-width:0.26458332"
           y="128.99954"
           x="196.48323"
           sodipodi:role="line">__martina_T_</tspan><tspan
           id="tspan1032-5-2-2"
           style="font-size:5.29166651px;fill:#9b637a;fill-opacity:1;stroke-width:0.26458332"
           y="135.61412"
           x="196.48323"
           sodipodi:role="line">__martina_H_</tspan><tspan
           id="tspan1007-3-3-9-9"
           style="fill:#9b637a;fill-opacity:1;stroke-width:0.26458332"
           y="140.66808"
           x="196.48323"
           sodipodi:role="line">martina</tspan></text>
    </a>
    <path
       style="fill:none;stroke:#133d87;stroke-width:1;stroke-linecap:butt;stroke-linejoin:miter;stroke-miterlimit:4;stroke-dasharray:none;stroke-opacity:1"
       d="m 116.45716,211.87385 v 6 h -6.47083 v 10"
       id="path898"
       inkscape:connector-curvature="0"
       sodipodi:nodetypes="cccc" />
    <path
       style="fill:none;stroke:#133d87;stroke-width:1;stroke-linecap:butt;stroke-linejoin:miter;stroke-miterlimit:4;stroke-dasharray:none;stroke-opacity:1"
       d="m 109.98633,243.87385 v -9"
       id="path900"
       inkscape:connector-curvature="0" />
    <rect
       style="opacity:1;fill:none;fill-opacity:1;stroke:#133d87;stroke-width:1;stroke-miterlimit:4;stroke-dasharray:none;stroke-dashoffset:0;stroke-opacity:1"
       id="rect847-3-9"
       width="49"
       height="105.4"
       x="136.58748"
       y="171.60001" />
    <path
       style="fill:none;stroke:#133d87;stroke-width:1;stroke-linecap:butt;stroke-linejoin:miter;stroke-miterlimit:4;stroke-dasharray:none;stroke-opacity:1"
       d="m 136.63863,228.73997 h 49.05189"
       id="path989-6-3"
       inkscape:connector-curvature="0"
       sodipodi:nodetypes="cc" />
    <a
       transform="translate(-55.340837,106.2936)"
       id="a4543-3-8">
      <text
         id="text1001-7-6-7"
         y="71.259262"
         x="207.4866"
         style="font-style:normal;font-weight:normal;font-size:3.52777767px;line-height:1.25;font-family:sans-serif;letter-spacing:0px;word-spacing:0px;fill:#4fc1c3;fill-opacity:1;stroke:none;stroke-width:0.26458332"
         xml:space="preserve"><tspan
           id="tspan1003-5-7-9"
           style="font-size:5.29166651px;fill:#4fc1c3;fill-opacity:1;stroke-width:0.26458332"
           y="71.259262"
           x="207.4866"
           sodipodi:role="line">__basement3_T_</tspan><tspan
           style="font-size:5.29166651px;fill:#4fc1c3;fill-opacity:1;stroke-width:0.26458332"
           y="77.873848"
           x="207.4866"
           sodipodi:role="line"
           id="tspan872">__basement3_H_</tspan><tspan
           style="font-size:5.29166651px;fill:#4fc1c3;fill-opacity:1;stroke-width:0.26458332"
           y="84.488426"
           x="207.4866"
           sodipodi:role="line"
           id="tspan927">__basement3_D_</tspan><tspan
           id="tspan1007-3-3-2"
           style="fill:#4fc1c3;fill-opacity:1;stroke-width:0.26458332"
           y="89.542381"
           x="207.4866"
           sodipodi:role="line">basement 3</tspan></text>
      <text
         xml:space="preserve"
         style="font-style:normal;font-weight:normal;font-size:3.52777767px;line-height:1.25;font-family:sans-serif;letter-spacing:0px;word-spacing:0px;fill:#000000;fill-opacity:1;stroke:none;stroke-width:0.26458332"
         x="247.31715"
         y="76.943214"
         id="text1006"><tspan
           sodipodi:role="line"
           id="tspan1004"
           x="247.31715"
           y="80.064468"
           style="stroke-width:0.26458332" /></text>
      <text
         id="text1001-7-6-7-3"
         y="99.851723"
         x="208.85686"
         style="font-style:normal;font-weight:normal;font-size:3.52777767px;line-height:1.25;font-family:sans-serif;letter-spacing:0px;word-spacing:0px;fill:#4fc1c3;fill-opacity:1;stroke:none;stroke-width:0.26458332"
         xml:space="preserve"><tspan
           id="tspan1003-5-7-9-6"
           style="font-size:5.29166651px;fill:#4fc1c3;fill-opacity:1;stroke-width:0.26458332"
           y="99.851723"
           x="208.85686"
           sodipodi:role="line">__basement2_T_</tspan><tspan
           style="font-size:5.29166651px;fill:#4fc1c3;fill-opacity:1;stroke-width:0.26458332"
           y="106.46631"
           x="208.85686"
           sodipodi:role="line"
           id="tspan872-7">__basement2_H_</tspan><tspan
           style="font-size:5.29166651px;fill:#4fc1c3;fill-opacity:1;stroke-width:0.26458332"
           y="113.08089"
           x="208.85686"
           sodipodi:role="line"
           id="tspan1010-5">__basement2_D_</tspan><tspan
           id="tspan1007-3-3-2-3"
           style="fill:#4fc1c3;fill-opacity:1;stroke-width:0.26458332"
           y="118.13484"
           x="208.85686"
           sodipodi:role="line">basement 2</tspan></text>
    </a>
    <a
       transform="translate(-62.770583,175.11126)"
       id="a4543-3-8-3">
      <text
         id="text1001-7-6-7-6"
         y="70.200928"
         x="214.89484"
         style="font-style:normal;font-weight:normal;font-size:3.52777767px;line-height:1.25;font-family:sans-serif;letter-spacing:0px;word-spacing:0px;fill:#4fc1c3;fill-opacity:1;stroke:none;stroke-width:0.26458332"
         xml:space="preserve"><tspan
           id="tspan1003-5-7-9-7"
           style="font-size:5.29166651px;fill:#4fc1c3;fill-opacity:1;stroke-width:0.26458332"
           y="70.200928"
           x="214.89484"
           sodipodi:role="line">__basement_T_</tspan><tspan
           id="tspan1032-5-20-5"
           style="font-size:5.29166651px;fill:#4fc1c3;fill-opacity:1;stroke-width:0.26458332"
           y="76.815514"
           x="214.89484"
           sodipodi:role="line">__basement_H_</tspan><tspan
           style="font-size:5.29166651px;fill:#4fc1c3;fill-opacity:1;stroke-width:0.26458332"
           y="83.430092"
           x="214.89484"
           sodipodi:role="line"
           id="tspan1010-3">__basement_D_</tspan><tspan
           id="tspan1007-3-3-2-5"
           style="fill:#4fc1c3;fill-opacity:1;stroke-width:0.26458332"
           y="88.484047"
           x="214.89484"
           sodipodi:role="line">basement 1</tspan></text>
      <text
         xml:space="preserve"
         style="font-style:normal;font-weight:normal;font-size:3.52777767px;line-height:1.25;font-family:sans-serif;letter-spacing:0px;word-spacing:0px;fill:#000000;fill-opacity:1;stroke:none;stroke-width:0.26458332"
         x="247.31715"
         y="76.943214"
         id="text1006-6"><tspan
           sodipodi:role="line"
           id="tspan1004-2"
           x="247.31715"
           y="80.064468"
           style="stroke-width:0.26458332" /></text>
    </a>
    <text
       xml:space="preserve"
       style="font-style:normal;font-weight:normal;font-size:3.52777767px;line-height:1.25;font-family:sans-serif;letter-spacing:0px;word-spacing:0px;fill:#76b769;fill-opacity:1;stroke:none;stroke-width:0.26458332"
       x="13.625207"
       y="242.34525"
       id="text1001-5"><tspan
         sodipodi:role="line"
         x="13.625207"
         y="242.34525"
         style="font-size:5.29166651px;fill:#aa8800;fill-opacity:1;stroke-width:0.26458332"
         id="tspan1003-6">__corridor_downstairs_T_</tspan><tspan
         sodipodi:role="line"
         x="13.625207"
         y="248.95982"
         style="font-size:5.29166651px;fill:#aa8800;fill-opacity:1;stroke-width:0.26458332"
         id="tspan1030-2">__corridor_downstairs_H_</tspan><tspan
         sodipodi:role="line"
         x="13.625207"
         y="254.01378"
         style="fill:#aa8800;fill-opacity:1;stroke-width:0.26458332"
         id="tspan1007-9">corridor d.s.</tspan></text>
  </g>
</svg>
